com\developerskeletor\businesscardocr\interfaces\BusinessCardParser.class
com\developerskeletor\businesscardocr\models\BusinessCardParserImpl.class
com\developerskeletor\businesscardocr\interfaces\ContactInfo.class
com\developerskeletor\businesscardocr\BusinessCardOcr.class
com\developerskeletor\businesscardocr\models\ContactInfoImpl.class
